{
  "UserAgent": "MobileHub/1.0",
  "Version": "1.0",
  "CredentialsProvider": {
    "CognitoIdentity": {
      "Default": {
        "PoolId": "us-east-2:725ca8b3-181d-49fa-991e-7ba9ceda7001",
        "Region": "us-east-2"
      }
    }
  },
  "IdentityManager": {
    "Default": {}
  },
  "S3TransferUtility": {
    "Default": {
      "Bucket": "overwatchvision-userfiles-mobilehub-1020206096",
      "Region": "us-east-2"
    }
  },
  "PinpointAnalytics": {
    "Default": {
      "AppId": "b4bfe259927a4dd0b0b245f26ec45007",
      "Region": "us-east-1"
    }
  },
  "PinpointTargeting": {
    "Default": {
      "Region": "us-east-1"
    }
  },
  "UserFileManager": {
    "Default": {
      "Bucket": "overwatchvision-userfiles-mobilehub-1020206096",
      "Region": "us-east-2"
    }
  }
}